# ID,	Name,		Jname,		LV,	HP,	SP,	EXP,	JEXP,	Range1,	ATK1,	ATK2,	DEF,	MDEF,	STR,	AGI,	VIT,	INT,	DEX,	LUK,	Range2,	Range3,	Scale,	Race,	Element,Mode,	Speed,	Adelay,	Amotion,Dmotion,Drop1id,Drop1per,	Drop2id,Drop2per,	Drop3id,Drop3per,	Drop4id,Drop4per,	Drop5id,Drop5per,	Drop6id,Drop6per,	Drop7id,Drop7per,	Drop8id,Drop8per,	MEXP,	ExpPer,	MVP1id,	MVP1per,	MVP2id,	MVP2per,MVP3id,	MVP3per,mutation count,	mutation strength
1002,	Tortugas,	Tortugas,	5,	60,	0,	4,	0,	1,	5,	10,	5,	5,	1,	1,	1,	0,	10,	6,	1,	1,	1,	1,	21,	1048705,900,	1872,	672,	480,	505,	1000,		506,	1500,		700,	800,		704,	900,		701,	100,		0,	0,		0,	0,		0,	0,		0,	0,	,	,		,	,	,	,	3,		5
1003,	Squichy,	Squichy,	5,	50,	0,	4,	0,	1,	5,	10,	0,	5,	1,	10,	1,	0,	6,	5,	1,	1,	1,	1,	21,	131,	350,	1872,	672,	480,	501,	2000,		502,	800,		709,	1500,		0,	0,		0,	0,		0,	0,		0,	0,		0,	0,		0,	0,	,	,		,	,	,	,	7,		15
1004,	Hive,		Hive,		1,	800,	0,	30,	0,	7,	0,	0,	7,	7,	2,	8,	10,	0,	0,	20,	1,	1,	1,	1,	20,	65536,	800,	800,	672,	480,	504,	3000,		705,	4000,		0,	0,		0,	0,		0,	0,		0,	0,		0,	0,		0,	0,		0,	0,	,	,		,	,	,	,	2,		10
1005,	Abela,		Abela,		10,	150,	0,	20,	0,	1,	5,	25,	0,	5,	1,	1,	1,	0,	20,	10,	1,	1,	1,	1,	24,	4587657,300,	1872,	672,	480,	504,	1000,		706,	1000,		707,	1500,		0,	0,		0,	0,		0,	0,		0,	0,		0,	0,		0,	0,	,	,		,	,	,	,	5,		20
1006,	QueenAbela,	Queen Abela,	20,	300,	0,	40,	0,	1,	7,	25,	3,	7,	1,	1,	1,	0,	20,	15,	1,	1,	1,	1,	24,	4194445,200,	1872,	672,	480,	504,	2500,		706,	2000,		707,	3000,		0,	0,		0,	0,		0,	0,		0,	0,		0,	0,		0,	0,	,	,		,	,	,	,	5,		5
1007,	Rat,		Rat,		20,	350,	0,	40,	0,	1,	8,	20,	5,	5,	2,	2,	2,	0,	6,	6,	1,	1,	1,	1,	21,	129,	400,	1872,	672,	480,	503,	700,		507,	800,		702,	1000,		703,	1000,		0,	0,		0,	0,		0,	0,		0,	0,		0,	0,	,	,		,	,	,	,	3,		5
1008,	Pious,		Pious,		1,	10,	0,	2,	0,	1,	1,	4,	0,	1,	1,	1,	1,	0,	6,	1,	1,	1,	1,	1,	21,	129,	800,	1872,	672,	480,	710,	2000,		711,	1500,		0,	0,		0,	0,		0,	0,		0,	0,		0,	0,		0,	0,		0,	0,	,	,		,	,	,	,	2,		5
1009,	Octopus,	Octopus,	10,	240,	0,	18,	0,	1,	7,	14,	4,	5,	3,	2,	4,	0,	1,	8,	1,	1,	1,	1,	21,	1048705,900,	1872,	672,	480,	0,	0,		0,	0,		0,	0,		0,	0,		0,	0,		0,	0,		0,	0,		0,	0,		0,	0,	,	,		,	,	,	,	3,		5
